<svg width="38" height="38" viewBox="0 0 38 38" fill="none" xmlns="http://www.w3.org/2000/svg">
<path d="M18.9999 34.8333C13.5628 34.8333 10.5544 30.9557 8.33142 27.162C8.31084 27.1272 7.70759 26.0109 7.46059 25.4314C6.71009 23.6185 6.33325 21.7106 6.33325 19.7504V13.8937C6.33325 8.74787 9.66459 6.86053 12.019 6.4457C12.5399 5.19328 14.1296 3.29803 18.9683 3.17137C22.7144 3.06053 26.3577 4.3842 28.7168 6.6832C30.6469 8.56262 31.6666 11.0469 31.6666 13.8699V19.7267C31.6666 21.6789 31.2898 23.59 30.5456 25.4077C30.2606 26.0679 29.6463 27.162 29.5766 27.2855C27.2032 31.2185 24.293 34.8333 18.9999 34.8333V34.8333ZM19.353 5.54162C19.2469 5.54162 19.1377 5.5432 19.0316 5.54478C15.2981 5.64453 14.1993 6.92703 14.1391 7.59045C14.0853 8.19212 13.5818 8.71778 12.9785 8.73045C12.5478 8.7447 8.70825 9.01387 8.70825 13.8937V19.7489C8.70825 21.3971 9.02492 22.9994 9.65192 24.5115C9.86409 25.0103 10.3993 25.9935 10.3993 25.9935C12.6666 29.86 15.0083 32.4583 18.9999 32.4583C22.8981 32.4583 25.1528 30.0199 27.5246 26.0869C29.8964 22.1539 28.1183 25.0388 28.3558 24.4862C28.9749 22.9757 29.2916 21.3686 29.2916 19.7251V13.8699C29.2916 11.6723 28.5411 9.82612 27.0607 8.38528C25.2446 6.6167 22.317 5.54162 19.353 5.54162V5.54162Z" fill="#2BA494"/>
<path d="M7.52098 19.3641C7.06815 19.3641 6.63273 19.1028 6.4364 18.6611C6.16882 18.0626 6.4364 17.3596 7.03648 17.092L9.46215 16.0074C9.49382 15.9931 12.9724 14.3766 12.9724 11.3888C12.9724 10.8157 13.3825 10.3248 13.9446 10.2203C14.5098 10.1127 15.0656 10.4309 15.2698 10.9661C15.3442 11.1577 16.9117 15.1001 20.5708 16.237C19.9644 14.2816 20.213 12.5541 20.2288 12.456C20.3048 11.9525 20.6959 11.5535 21.1978 11.4664C21.6934 11.3746 22.2016 11.6216 22.4455 12.0681C23.2862 13.615 25.0706 15.9029 26.2312 15.9029C26.654 15.9029 26.8282 15.895 27.0087 15.8855C27.4267 15.8665 27.851 15.8475 30.4999 15.8934C31.1554 15.9061 31.6779 16.4476 31.6652 17.1031C31.6526 17.7522 31.1237 18.2684 30.4777 18.2684C30.4714 18.2684 30.4635 18.2684 30.4556 18.2684C27.8922 18.2193 27.4789 18.2383 27.1211 18.2573C26.9136 18.2668 26.7126 18.2763 26.2312 18.2763C25.3366 18.2763 24.4896 17.8931 23.7311 17.3342C23.8356 17.6366 23.8182 17.9755 23.6662 18.2684C23.4636 18.6642 23.0551 18.9128 22.6101 18.9128C18.5695 18.9128 15.9887 16.4903 14.5383 14.4731C13.183 16.9146 10.5784 18.1069 10.4296 18.1718L8.0039 19.2564C7.84873 19.3308 7.68407 19.3641 7.52098 19.3641V19.3641Z" fill="#2BA494"/>
<path d="M19.0015 29.2917C17.4134 29.2917 15.9251 28.6552 14.8057 27.501C14.3497 27.0291 14.3623 26.2786 14.8342 25.821C15.3076 25.3635 16.0581 25.3777 16.5141 25.848C17.8441 27.2255 20.1557 27.227 21.4921 25.848C21.9512 25.3777 22.7017 25.3666 23.172 25.821C23.6438 26.277 23.6565 27.0291 23.2005 27.501C22.0763 28.6552 20.588 29.2917 19.0015 29.2917V29.2917Z" fill="#2BA494"/>
<path d="M36.8126 13.2177C36.1571 13.2177 35.6251 12.6857 35.6251 12.0302V4.35417C35.6251 3.26325 34.7369 2.375 33.646 2.375H25.97C25.3145 2.375 24.7825 1.843 24.7825 1.1875C24.7825 0.532 25.3145 0 25.97 0H33.646C36.0479 0 38.0001 1.95383 38.0001 4.35417V12.0302C38.0001 12.6857 37.4681 13.2177 36.8126 13.2177Z" fill="#2BA494"/>
<path d="M1.1875 13.2177C0.532 13.2177 0 12.6857 0 12.0302V4.35417C0 1.95383 1.95225 0 4.35417 0H12.0302C12.6857 0 13.2177 0.532 13.2177 1.1875C13.2177 1.843 12.6857 2.375 12.0302 2.375H4.35417C3.26325 2.375 2.375 3.26325 2.375 4.35417V12.0302C2.375 12.6857 1.843 13.2177 1.1875 13.2177V13.2177Z" fill="#2BA494"/>
<path d="M33.646 37.9999H25.97C25.3145 37.9999 24.7825 37.4679 24.7825 36.8124C24.7825 36.1569 25.3145 35.6249 25.97 35.6249H33.646C34.7369 35.6249 35.6251 34.7367 35.6251 33.6458V25.9698C35.6251 25.3143 36.1571 24.7823 36.8126 24.7823C37.4681 24.7823 38.0001 25.3143 38.0001 25.9698V33.6458C38.0001 36.0461 36.0479 37.9999 33.646 37.9999Z" fill="#2BA494"/>
<path d="M12.0302 37.9999H4.35417C1.95225 37.9999 0 36.0461 0 33.6458V25.9698C0 25.3143 0.532 24.7823 1.1875 24.7823C1.843 24.7823 2.375 25.3143 2.375 25.9698V33.6458C2.375 34.7367 3.26325 35.6249 4.35417 35.6249H12.0302C12.6857 35.6249 13.2177 36.1569 13.2177 36.8124C13.2177 37.4679 12.6857 37.9999 12.0302 37.9999V37.9999Z" fill="#2BA494"/>
</svg>
